…
> 
> ## EDA
> 
> # box plot
> ggplot(amazon_train) +
+   geom_boxplot(aes(x = ACTION, y = ROLE_TITLE))
> 
> # counts
> amazon_train %>%
+   group_by(ROLE_FAMILY) %>%
+   summarize(total = n(),
+          YES = sum(ACTION == 1),
+          NO = sum(ACTION == 0),
+          frac = YES/total)
# A tibble: 67 × 5
   ROLE_FAMILY total   YES    NO  frac
         <dbl> <int> <int> <int> <dbl>
 1        3130   146   141     5 0.966
 2        4673   384   332    52 0.865
 3        6725    98    97     1 0.990
 4       19721  2636  2393   243 0.908
 5       19793   362   303    59 0.837
 6      117887  2400  2302    98 0.959
 7      118131   160   137    23 0.856
 8      118205   449   423    26 0.942
 9      118295   493   469    24 0.951
10      118331   892   841    51 0.943
# ℹ 57 more rows
…
